# Project : 
# User    : 
# File : AddedMass_66.dat
#
# Constants used in computations :
#     Reference length     :     1.0000 
#     Water density (rho)  :  1025.0000
#     Gravity acceleration :     9.8100
#     Waterdepth           :       200.0000
#     Ref.pt incident wave : (      0.0067   0.0000)
#            Forward speed :   0.0000  m/s   
#
# Reference point of body 1: (    0.000    0.000  -71.560)
# MEANVALUE :   0.0000E+00
#   AMP/PHASE
#------------------------------------------------------------------------
#RAOTYPE    :  ADDED-MASS
#COMPONENT  : 66
#UNIT       :  kg*m*m/rad
#NBHEADING   1
#HEADING          0.00
#---w(r/s)-----------------------------------------------------
  0.0628  5.647620E+03      0.0000
  0.1256  5.647622E+03      0.0000
  0.1884  5.647626E+03      0.0000
  0.2512  5.647632E+03      0.0000
  0.3140  5.647640E+03      0.0000
  0.3768  5.647652E+03      0.0000
  0.4396  5.647668E+03      0.0000
  0.5024  5.647692E+03      0.0000
  0.5652  5.647721E+03      0.0000
  0.6280  5.647753E+03      0.0000
  0.6908  5.647778E+03      0.0000
  0.7536  5.647781E+03      0.0000
  0.8164  5.647752E+03      0.0000
  0.8792  5.647692E+03      0.0000
  0.9420  5.647615E+03      0.0000
  1.0048  5.647541E+03      0.0000
  1.0676  5.647490E+03      0.0000
  1.1304  5.647468E+03      0.0000
  1.1932  5.647472E+03      0.0000
  1.2560  5.647494E+03      0.0000
  1.3188  5.647525E+03      0.0000
  1.3816  5.647556E+03      0.0000
  1.4444  5.647586E+03      0.0000
  1.5072  5.647613E+03      0.0000
  1.5700  5.647639E+03      0.0000
  1.6328  5.647665E+03      0.0000
  1.6956  5.647690E+03      0.0000
  1.7584  5.647716E+03      0.0000
  1.8212  5.647743E+03      0.0000
  1.8840  5.647773E+03      0.0000
  1.9468  5.647804E+03      0.0000
  2.0096  5.647838E+03      0.0000
  2.0724  5.647874E+03      0.0000
  2.1352  5.647912E+03      0.0000
  2.1980  5.647951E+03      0.0000
  2.2608  5.647992E+03      0.0000
  2.3236  5.648034E+03      0.0000
  2.3864  5.648079E+03      0.0000
  2.4492  5.648131E+03      0.0000
  2.5120  5.648191E+03      0.0000
  2.5748  5.648263E+03      0.0000
  2.6376  5.648347E+03      0.0000
  2.7004  5.648443E+03      0.0000
  2.7632  5.648552E+03      0.0000
  2.8260  5.648674E+03      0.0000
  2.8888  5.648812E+03      0.0000
  2.9516  5.648968E+03      0.0000
  3.0144  5.649146E+03      0.0000
  3.0772  5.649351E+03      0.0000
  3.1400  5.649586E+03      0.0000
  3.2028  5.649847E+03      0.0000
  3.2656  5.650128E+03      0.0000
  3.3284  5.650405E+03      0.0000
  3.3912  5.650635E+03      0.0000
  3.4540  5.650754E+03      0.0000
  3.5168  5.650688E+03      0.0000
  3.5796  5.650391E+03      0.0000
  3.6424  5.649868E+03      0.0000
  3.7052  5.649193E+03      0.0000
  3.7680  5.648465E+03      0.0000
  3.8308  5.647771E+03      0.0000
  3.8936  5.647158E+03      0.0000
  3.9564  5.646644E+03      0.0000
  4.0192  5.646225E+03      0.0000
  4.0820  5.645886E+03      0.0000
  4.1448  5.645610E+03      0.0000
  4.2076  5.645380E+03      0.0000
  4.2704  5.645178E+03      0.0000
  4.3332  5.644989E+03      0.0000
  4.3960  5.644802E+03      0.0000
  4.4588  5.644619E+03      0.0000
  4.5216  5.644453E+03      0.0000
  4.5844  5.644340E+03      0.0000
  4.6472  5.644349E+03      0.0000
  4.7100  5.644588E+03      0.0000
  4.7728  5.645094E+03      0.0000
  4.8356  5.645633E+03      0.0000
  4.8984  5.645801E+03      0.0000
  4.9612  5.645366E+03      0.0000
  5.0240  5.645199E+03      0.0000
  5.0868  5.645140E+03      0.0000
  5.1496  5.645081E+03      0.0000
  5.2124  5.645026E+03      0.0000
  5.2752  5.644765E+03      0.0000
  5.3380  5.644586E+03      0.0000
  5.4008  5.644989E+03      0.0000
  5.4636  5.645228E+03      0.0000
  5.5264  5.645320E+03      0.0000
  5.5892  5.645302E+03      0.0000
  5.6520  5.645220E+03      0.0000
  5.7148  5.645123E+03      0.0000
  5.7776  5.645048E+03      0.0000
  5.8404  5.645014E+03      0.0000
  5.9032  5.645031E+03      0.0000
  5.9660  5.645103E+03      0.0000
  6.0288  5.645230E+03      0.0000
  6.0916  5.645404E+03      0.0000
  6.1544  5.645592E+03      0.0000
  6.2172  5.645694E+03      0.0000
  6.2800  5.645495E+03      0.0000
#------------------------------------------------------------
#ENDFILE AddedMass_66.dat                                                                                                                                      
